127.0.0.1 - - [09/Sep/2015:12:10:55 +0300] "GET / HTTP/1.1" 404 951
0:0:0:0:0:0:0:1 - - [09/Sep/2015:12:10:57 +0300] "GET /cazareapp/ HTTP/1.1" 200 52
127.0.0.1 - - [09/Sep/2015:13:34:08 +0300] "GET / HTTP/1.1" 404 951
0:0:0:0:0:0:0:1 - - [09/Sep/2015:13:34:09 +0300] "GET /cazareapp/ HTTP/1.1" 200 52
0:0:0:0:0:0:0:1 - - [09/Sep/2015:13:34:24 +0300] "GET /cazareapp/app/service/getmessage HTTP/1.1" 404 949
0:0:0:0:0:0:0:1 - - [09/Sep/2015:13:34:25 +0300] "GET /favicon.ico HTTP/1.1" 404 973
127.0.0.1 - - [09/Sep/2015:13:39:22 +0300] "GET / HTTP/1.1" 404 951
0:0:0:0:0:0:0:1 - - [09/Sep/2015:13:39:22 +0300] "GET /cazareapp/ HTTP/1.1" 200 52
0:0:0:0:0:0:0:1 - - [09/Sep/2015:13:39:46 +0300] "GET /cazareapp/app/service/getmessage HTTP/1.1" 404 949
127.0.0.1 - - [09/Sep/2015:13:48:36 +0300] "GET / HTTP/1.1" 404 951
0:0:0:0:0:0:0:1 - - [09/Sep/2015:13:48:36 +0300] "GET /cazareapp/ HTTP/1.1" 200 52
0:0:0:0:0:0:0:1 - - [09/Sep/2015:13:48:42 +0300] "GET /cazareapp/app/service/getmessage HTTP/1.1" 200 14
127.0.0.1 - - [09/Sep/2015:13:54:11 +0300] "GET / HTTP/1.1" 404 951
0:0:0:0:0:0:0:1 - - [09/Sep/2015:13:54:11 +0300] "GET /cazareapp/ HTTP/1.1" 200 52
0:0:0:0:0:0:0:1 - - [09/Sep/2015:13:54:46 +0300] "GET /cazareapp/app/status/g HTTP/1.1" 200 12
0:0:0:0:0:0:0:1 - - [09/Sep/2015:13:55:32 +0300] "GET /cazareapp/ HTTP/1.1" 200 52
0:0:0:0:0:0:0:1 - - [09/Sep/2015:13:55:37 +0300] "GET /cazareapp/app/status/g HTTP/1.1" 200 12
0:0:0:0:0:0:0:1 - - [09/Sep/2015:13:55:42 +0300] "GET /cazareapp/app/status/getmessage HTTP/1.1" 200 25
127.0.0.1 - - [09/Sep/2015:13:59:05 +0300] "GET / HTTP/1.1" 404 951
0:0:0:0:0:0:0:1 - - [09/Sep/2015:13:59:05 +0300] "GET /cazareapp/ HTTP/1.1" 200 52
0:0:0:0:0:0:0:1 - - [09/Sep/2015:13:59:10 +0300] "GET /cazareapp/app/status/getmessage HTTP/1.1" 200 51
0:0:0:0:0:0:0:1 - - [09/Sep/2015:13:59:12 +0300] "GET /cazareapp/app/status/getmessage HTTP/1.1" 200 51
127.0.0.1 - - [09/Sep/2015:14:04:17 +0300] "GET / HTTP/1.1" 404 951
0:0:0:0:0:0:0:1 - - [09/Sep/2015:14:04:18 +0300] "GET /cazareapp/ HTTP/1.1" 200 52
0:0:0:0:0:0:0:1 - - [09/Sep/2015:14:04:36 +0300] "GET /cazareapp/app/status/getmessage HTTP/1.1" 200 51
0:0:0:0:0:0:0:1 - - [09/Sep/2015:14:04:41 +0300] "GET /cazareapp/app/status/postm HTTP/1.1" 405 1013
0:0:0:0:0:0:0:1 - - [09/Sep/2015:14:04:46 +0300] "POST /cazareapp/app/status/postm HTTP/1.1" 200 22
127.0.0.1 - - [09/Sep/2015:14:08:31 +0300] "GET / HTTP/1.1" 404 951
0:0:0:0:0:0:0:1 - - [09/Sep/2015:14:08:32 +0300] "GET /cazareapp/ HTTP/1.1" 200 52
0:0:0:0:0:0:0:1 - - [09/Sep/2015:14:08:36 +0300] "POST /cazareapp/app/status/postm HTTP/1.1" 200 22
0:0:0:0:0:0:0:1 - - [09/Sep/2015:14:11:06 +0300] "POST /cazareapp/app/status/postm HTTP/1.1" 200 15
127.0.0.1 - - [09/Sep/2015:14:11:29 +0300] "GET / HTTP/1.1" 404 951
0:0:0:0:0:0:0:1 - - [09/Sep/2015:14:11:29 +0300] "GET /cazareapp/ HTTP/1.1" 200 52
0:0:0:0:0:0:0:1 - - [09/Sep/2015:14:11:33 +0300] "POST /cazareapp/app/status/postm HTTP/1.1" 200 14
127.0.0.1 - - [09/Sep/2015:14:21:12 +0300] "GET / HTTP/1.1" 404 951
0:0:0:0:0:0:0:1 - - [09/Sep/2015:14:21:12 +0300] "GET /cazareapp/ HTTP/1.1" 200 52
0:0:0:0:0:0:0:1 - - [09/Sep/2015:14:23:44 +0300] "POST /cazareapp/app/status/postm HTTP/1.1" 200 25
127.0.0.1 - - [09/Sep/2015:14:33:52 +0300] "GET / HTTP/1.1" 404 951
0:0:0:0:0:0:0:1 - - [09/Sep/2015:14:33:53 +0300] "GET /cazareapp/ HTTP/1.1" 200 52
0:0:0:0:0:0:0:1 - - [09/Sep/2015:14:34:00 +0300] "POST /cazareapp/app/status/postm HTTP/1.1" 404 967
0:0:0:0:0:0:0:1 - - [09/Sep/2015:14:34:17 +0300] "POST /cazareapp/app/status/addmessage HTTP/1.1" 200 25
0:0:0:0:0:0:0:1 - - [09/Sep/2015:14:34:45 +0300] "POST /cazareapp/app/status/addmessage HTTP/1.1" 200 25
0:0:0:0:0:0:0:1 - - [09/Sep/2015:14:35:11 +0300] "GET /cazareapp/app/status/getmessage HTTP/1.1" 200 71
0:0:0:0:0:0:0:1 - - [09/Sep/2015:14:35:50 +0300] "POST /cazareapp/app/status/addmessage HTTP/1.1" 200 25
0:0:0:0:0:0:0:1 - - [09/Sep/2015:14:36:32 +0300] "GET /cazareapp/app/status/getmessage HTTP/1.1" 200 71
127.0.0.1 - - [09/Sep/2015:14:55:22 +0300] "GET / HTTP/1.1" 404 951
0:0:0:0:0:0:0:1 - - [09/Sep/2015:14:55:22 +0300] "GET /cazareapp/ HTTP/1.1" 200 52
127.0.0.1 - - [09/Sep/2015:14:57:53 +0300] "GET / HTTP/1.1" 404 951
0:0:0:0:0:0:0:1 - - [09/Sep/2015:14:57:54 +0300] "GET /cazareapp/ HTTP/1.1" 200 52
0:0:0:0:0:0:0:1 - - [09/Sep/2015:14:58:02 +0300] "GET /cazareapp/app/status/getmessage HTTP/1.1" 500 3136
0:0:0:0:0:0:0:1 - - [09/Sep/2015:14:58:25 +0300] "GET /cazareapp/ HTTP/1.1" 200 52
0:0:0:0:0:0:0:1 - - [09/Sep/2015:14:58:45 +0300] "POST /cazareapp/app/status/postmessage HTTP/1.1" 404 967
0:0:0:0:0:0:0:1 - - [09/Sep/2015:14:58:53 +0300] "POST /cazareapp/app/status/addmessage HTTP/1.1" 200 25
0:0:0:0:0:0:0:1 - - [09/Sep/2015:14:59:17 +0300] "GET /cazareapp/app/status/getmessage HTTP/1.1" 500 3136
127.0.0.1 - - [09/Sep/2015:15:19:22 +0300] "GET / HTTP/1.1" 404 951
0:0:0:0:0:0:0:1 - - [09/Sep/2015:15:19:22 +0300] "GET /cazareapp/ HTTP/1.1" 200 52
0:0:0:0:0:0:0:1 - - [09/Sep/2015:15:19:30 +0300] "GET /cazareapp/app/status/getmessage HTTP/1.1" 200 71
0:0:0:0:0:0:0:1 - - [09/Sep/2015:15:20:00 +0300] "POST /cazareapp/app/status/addmessage HTTP/1.1" 200 25
0:0:0:0:0:0:0:1 - - [09/Sep/2015:15:20:28 +0300] "GET /cazareapp/app/status/getmessage HTTP/1.1" 200 50
0:0:0:0:0:0:0:1 - - [09/Sep/2015:15:33:49 +0300] "POST /cazareapp/app/status/addmessage HTTP/1.1" 200 17
0:0:0:0:0:0:0:1 - - [09/Sep/2015:15:34:00 +0300] "POST /cazareapp/app/status/addmessage HTTP/1.1" 200 45
0:0:0:0:0:0:0:1 - - [09/Sep/2015:15:34:16 +0300] "GET /cazareapp/app/status/getmessage HTTP/1.1" 200 69
127.0.0.1 - - [09/Sep/2015:15:53:44 +0300] "GET / HTTP/1.1" 404 951
0:0:0:0:0:0:0:1 - - [09/Sep/2015:15:53:45 +0300] "GET /cazareapp/ HTTP/1.1" 200 52
0:0:0:0:0:0:0:1 - - [09/Sep/2015:15:54:21 +0300] "POST /cazareapp/app/status/addmessage HTTP/1.1" 200 23
0:0:0:0:0:0:0:1 - - [09/Sep/2015:15:54:48 +0300] "GET /cazareapp/app/status/getmessage HTTP/1.1" 200 50
0:0:0:0:0:0:0:1 - - [09/Sep/2015:15:55:10 +0300] "POST /cazareapp/app/status/addmessage HTTP/1.1" 200 23
0:0:0:0:0:0:0:1 - - [09/Sep/2015:15:55:16 +0300] "GET /cazareapp/app/status/getmessage HTTP/1.1" 200 46
127.0.0.1 - - [09/Sep/2015:17:00:13 +0300] "GET / HTTP/1.1" 404 951
0:0:0:0:0:0:0:1 - - [09/Sep/2015:17:00:14 +0300] "GET /cazareapp/ HTTP/1.1" 200 57
